1 10 20
100 200 125
201 210 89
900 1000 174
10 1 20
174968 773473 509
230253 796275 509
326517 133173 443
16666 227669 386
248975 791718 509
942321 219703 525
755800 712509 424
77720 673163 509
836061 706184 468
731960 65160 509
565436 926805 525
414868 908729 525
547936 88861 470
306161 31794 443
823427 174628 509
962869 352101 525
767125 392231 509
178951 334054 443
464739 832093 509
864105 507095 525
814197 545957 509
104603 616114 470
155479 644192 509
592594 917896 525
210221 812008 509
802594 811882 406
126730 42419 354
315283 347939 441
95596 204058 383
941508 126463 525
160275 38416 383
37161 167645 383
903087 701652 525
709137 353927 509
261977 439251 449
289956 798690 509
657034 271788 509
478401 724943 509
360084 138826 443
501163 948978 525
249232 537461 470
935668 54901 525
545133 122241 470
393150 645893 509
794102 501912 509
989621 655556 525
467751 643053 509
277368 176521 443
874996 151359 525
452487 989991 525
80580 932816 525
63922 656631 509
31845 213360 383
567126 328937 470
760412 414331 509
338249 319317 384
553898 454466 470
108930 735388 509
411822 32299 449
422575 510157 444
642136 463613 509
91241 351837 443
504115 462851 426
180377 894982 525
504311 410524 444
420581 411089 387
126514 543908 470
350424 966229 525
985495 379604 525
731180 517752 509
752040 740976 393
56937 859572 525
44754 349081 443
428749 672656 509
119395 690527 509
282941 665731 509
195208 507277 449
164510 314416 443
670113 435889 509
189063 342350 443
967845 107323 525
493429 190097 449
978105 588294 525
513746 408526 470
861305 115136 525
517664 410766 470
770611 261011 509
811461 45012 509
965288 335458 525
614105 820418 509
72168 18793 340
994064 661826 525
458364 663988 509
753956 781989 468
615651 99447 470
318730 521170 470
854886 783205 525
193729 805427 509
826300 856012 525
164201 646536 509
650671 302145 509
708342 874365 525
682958 68443 509
859191 937974 476
863886 308514 525
342775 384647 441
220683 880582 525
936405 788093 525
398514 951148 525
871097 599410 525
762494 459952 509
553738 239495 470
854721 352665 525
214762 218866 386
201908 479446 449
273562 609769 470
557210 362230 470
620541 13381 470
49638 78377 351
59023 855367 525
152681 273247 443
457445 784534 509
29750 710221 509
83725 999913 525
136791 560532 470
963703 498651 525
162142 105165 383
533990 824305 509
782936 633025 504
39742 431083 449
410812 863207 525
802099 808137 406
189559 960403 525
532692 61544 470
512245 918392 525
664564 408358 509
697171 70240 509
830841 220252 509
866004 417922 525
790020 337410 509
674122 74510 509
730875 308975 509
392329 683059 509
985945 82879 525
889798 608245 525
552118 363603 470
188810 430809 449
559188 110546 470
639219 13869 509
160380 282226 443
334532 221060 443
171542 202000 365
723966 133958 509
683966 542110 509
663338 37700 509
675055 567107 509
551248 526129 452
321362 600107 470
636849 543203 509
24675 188150 383
717246 760821 424
346646 949452 525
584378 23132 470
346796 113780 443
876790 157086 525
789083 669023 504
123155 281882 443
124336 519618 470
813574 156688 509
75838 186186 383
210493 784400 509
896292 363410 525
87114 233086 443
711114 984213 525
140975 34457 354
286171 516223 470
423996 904868 525
333254 352769 441
356326 266529 441
455089 414482 418
324738 741420 509
116864 544501 470
27833 424145 449
885621 656049 525
155167 972792 525
647353 728970 504
56922 505165 449
385785 884868 525
959042 855237 507
718686 33900 509
553211 464511 470
663791 350887 509
947293 842573 507
488935 11554 449
640796 439817 509
120589 911162 525
609457 808331 509
194376 494388 449
817800 664860 504
688588 890526 525
924976 118349 525
176425 920780 525
606133 333617 470
852163 868091 419
878970 113033 525
976773 146747 525
377887 988799 525
392514 525033 470
549695 185927 470
429107 107161 449
496323 91159 449
755079 290777 509
258018 905287 525
733022 248348 509
50989 562706 470
365881 203920 443
82682 755739 509
263201 131900 443
294107 467621 449
560264 390886 470
178214 848847 525
713293 184938 509
416860 244560 449
868116 371057 525
316476 566404 470
443088 821198 509
722857 140392 509
588592 52126 470
627513 778421 504
246892 516170 470
963843 162171 525
443105 371132 449
788199 787670 362
942515 141353 525
272372 93284 443
186901 778186 509
916585 855176 476
204101 380539 443
803507 778136 468
