467321 69138 449
65847 350433 443
562766 864907 525
770883 488858 509
370410 373860 348
573100 454066 470
505104 220801 449
580205 128089 470
745342 372043 509
648593 630378 416
324075 466238 449
4009 241766 443
19810 445364 449
887413 299396 525
569836 134673 470
183926 695413 509
365032 831347 509
261669 249413 363
16797 867821 525
62269 803505 509
92076 172189 383
868170 255103 525
948653 767154 525
102884 970028 525
236249 294082 407
586017 868182 525
235611 335613 407
213434 923877 525
575298 610879 434
30960 400654 443
281704 460703 449
837433 585022 509
281229 58292 443
567019 510294 470
656860 803761 504
918222 361856 525
886914 44014 525
780311 386001 509
801512 766196 468
795782 406767 509
768323 401561 509
351448 856001 525
799531 333523 509
788044 414246 509
159022 867006 525
175446 521691 470
981360 119784 525
837114 789306 468
11361 639820 509
292465 404729 441
874240 862164 432
959200 671290 525
965237 948744 414
959147 493113 525
913147 450207 525
543019 133482 470
760630 677612 504
486666 298353 449
505585 514850 470
691913 750493 504
624965 636581 509
601419 261060 470
969725 166048 525
592671 337215 470
455782 464742 444
562524 707333 509
502864 799808 509
496736 905801 525
794979 416421 509
857823 512553 525
961759 253352 525
577141 595868 434
908245 225886 525
263144 425123 449
744191 411768 509
808200 737682 468
34493 263839 443
588080 967434 525
542062 651022 509
716618 662612 504
704982 814988 468
314579 791950 509
981630 807782 525
194562 939381 525
276722 46461 443
332097 397565 441
478798 829797 509
452029 238046 449
106506 248818 443
127267 815945 509
154172 101570 375
373298 685710 509
325514 730146 509
906701 897026 445
409741 702556 509
65498 668789 509
420958 246361 449
907837 383381 525
989459 94328 525
250462 804454 509
64114 603181 470
654764 929793 525
785886 399715 509
698645 760551 504
50281 62103 340
554065 819583 509
242200 305779 407
991274 653555 525
427804 682328 509
514038 486683 470
160747 361804 443
329305 908775 525
286881 622567 470
128489 596093 470
344764 213327 443
982052 313130 525
760538 445432 509
534529 389485 470
905647 463619 525
989016 847069 507
6609 607191 470
895197 398660 525
449592 916741 525
568262 203159 470
854743 668345 525
479879 844167 525
178298 932529 525
818601 57307 509
467864 791487 509
258962 54568 443
470268 479006 382
712190 853470 525
245891 7484 443
787075 676210 504
640660 715338 504
220882 63253 386
269926 418501 449
538559 704394 509
187765 121804 383
831884 91304 509
670181 381236 509
460036 767343 509
564041 261588 470
212147 3253 383
62584 227962 386
828494 998535 525
228951 12718 386
781674 48721 509
639477 502610 509
274113 41243 443
295485 364738 441
9543 619663 470
103910 415072 449
211633 53540 383
682679 175664 509
272881 753095 509
707259 823474 468
802516 797696 406
599583 376025 470
614046 236490 470
951147 781101 525
110783 595418 470
375141 325268 441
768904 539425 509
704961 824102 468
706398 539602 509
996437 847838 507
404032 620119 470
869957 356487 525
595806 556637 434
215920 990398 525
919738 317682 525
461194 31872 449
423714 370687 449
59951 518424 470
729186 969801 525
31648 664030 509
914667 23867 525
213320 475513 449
436337 864992 525
213244 525346 470
591724 383179 470
6860 981755 525
115092 734170 509
193120 223023 386
66862 224451 386
455368 491735 444
970724 734258 525
400495 958918 525
453172 21630 449
728773 71396 509
647987 66413 509
799387 848434 525
245667 220786 443
719222 671657 504
885703 100371 525
3968 650543 509
449794 409425 449
170112 771447 509
216693 96186 386
851205 976609 507
501136 432095 444
824981 867131 525
718347 357103 509
430697 812841 509
459042 737648 509
206447 29968 383
526662 518670 439
551346 138006 470
11300 921799 525
179323 875167 525
693723 32578 509
799211 35765 509
676804 872599 525
340188 32957 443
54855 211769 383
632952 396714 509
898792 824660 525
144481 472298 449
471137 58697 449
367414 237270 441
616202 568760 447
245946 940536 525
756215 470069 509
527739 503382 470
532925 411710 470
655880 987948 525
825931 758175 468
224895 802079 509
649127 495215 509
448271 516855 470
863080 276987 525
733306 118676 509
206085 183249 360
159307 440817 449
356752 309284 441
887847 963811 507
230978 315870 407
342960 525782 470
997533 401741 525
496301 725327 509
878732 207424 525
868911 905325 445
834058 284400 509
924977 766510 525
247607 327726 407
204303 759778 509
399504 160198 443
760714 576122 509
359840 640585 509
411732 157990 449
526148 164832 470
647620 894128 525
372102 119562 443
454277 689276 509
227033 98519 386
665737 984872 525
930445 643009 525
595212 308408 470
104648 351792 443
226654 994615 525
513166 661615 509
479091 154030 449
19013 363387 443
980146 584443 525
861744 308267 525
500068 820221 509
999346 591159 525
300718 779856 509
198967 640602 509
449782 652489 509
822365 227279 509
90753 185457 383
459881 660049 509
798204 792660 468
668051 296108 509
266614 549575 470
833550 322730 509
41972 496414 449
803186 519352 509
686740 921475 525
545425 150173 470
509781 190861 449
809256 137712 509
584602 678163 509
746100 479270 509
957571 264873 525
415267 510720 444
121576 208203 383
171505 610756 470
308600 638453 509
714908 960494 525
202549 638447 509
456055 771846 509
486099 200204 449
701049 226609 509
892725 83109 525
552879 835737 509
625031 375314 470
579066 842022 525
