384413 972727 525
226606 573182 470
479627 157992 449
755239 526422 509
292719 43059 443
2805 139139 354
183694 792753 509
800727 166751 509
987766 245371 525
853001 573039 525
937484 182682 525
732491 460503 509
789875 127724 509
883720 173450 525
872092 175931 525
163406 717838 509
82499 753396 509
341725 390870 441
82043 161882 383
549190 437582 470
265290 674378 509
303907 925985 525
928353 584712 525
454125 982179 525
507697 363818 449
62519 480983 449
705504 325522 509
519300 990778 525
767199 292013 509
605357 474734 470
878898 304583 525
525918 364671 470
851885 886399 432
908742 170284 525
621428 1754 470
863816 723686 525
298463 144741 443
785280 971600 525
463155 851999 525
292777 489682 449
584048 244505 470
41226 609191 470
423757 831861 509
601138 209563 470
308711 947247 525
262478 916901 525
727518 424853 509
699408 351530 509
722467 777612 468
448729 602628 470
839822 52224 525
928145 917074 476
223521 809967 509
375426 293424 441
607363 201051 470
418225 137095 449
226321 898734 525
457098 455710 356
91280 887770 525
402710 763046 509
656311 4073 509
402716 892351 525
96403 443353 449
497847 336088 449
948655 141376 525
600583 201373 470
766228 69608 509
452949 781073 509
347058 656122 509
53287 953378 525
325019 897776 525
49433 572913 470
298241 852981 525
202090 473350 449
629771 310213 509
577781 796779 509
515992 391542 470
894408 707238 525
733799 941907 525
235436 49426 443
521487 377183 470
315180 563684 470
444665 712633 509
181918 694793 509
694335 92030 509
159737 73729 383
614995 842684 525
482832 724264 509
24917 242240 443
464350 555370 470
402671 570951 470
283941 319597 389
55943 877009 525
605187 882544 525
714997 957609 525
4379 898720 525
502682 688890 509
601262 736749 509
771055 979425 525
892437 872883 445
262444 364280 441
839214 834148 525
33607 896320 525
361839 452775 449
99289 425472 449
390382 280341 441
983329 288071 525
319182 541402 470
316448 686867 509
86775 718699 509
57986 198248 383
99440 637729 509
600203 983502 525
135274 633858 509
497874 196188 449
541009 195957 470
313402 982831 525
766795 612131 509
310017 696469 509
737419 358764 509
414086 91783 449
600580 969106 525
417048 177402 449
201422 148729 383
514058 976374 525
242037 812838 509
586064 145066 470
737727 637247 504
972927 454202 525
817241 99466 509
182104 159862 370
466932 887401 525
101446 615247 470
367306 586383 470
282707 119594 443
98456 81844 333
211037 815459 509
775049 442135 509
672835 639183 442
135089 693308 509
995000 254096 525
291921 437316 449
262578 893912 525
785754 395862 509
44889 932899 525
597035 844474 525
124511 558215 470
378876 831473 509
319105 556888 470
730117 800702 468
530593 107307 470
657899 336679 509
334009 16967 443
75647 633385 509
233183 424754 449
584263 475272 470
615454 796833 509
24557 498555 449
793203 928213 525
736816 284085 509
33104 375565 443
812638 291690 509
586047 214195 470
581093 826235 509
634588 102992 509
359475 375390 410
308186 309741 340
349923 488313 449
209862 99099 383
982637 873882 507
488520 63111 449
792418 272315 509
20485 960613 525
102119 800862 509
501716 90570 449
401081 537540 470
519202 214875 470
994938 70669 525
897392 547333 525
366015 690517 509
814537 18282 509
141413 687592 509
907162 294388 525
916675 890746 476
949010 879135 507
637907 308788 509
866116 902081 445
603148 609472 403
923521 212466 525
792074 35149 509
644256 133192 509
528604 654936 509
347163 521730 470
100612 156196 383
547271 318350 470
651685 799893 504
860065 398887 525
404719 931962 525
913589 13822 525
118648 710180 509
868185 273823 525
694243 750706 504
387575 318242 441
218245 910623 525
699211 731025 504
951232 447992 525
997123 396347 525
438751 558724 470
606838 361146 470
342547 297636 384
101118 997000 525
611051 596605 403
528373 407686 470
816087 411174 509
23106 362162 443
946118 39417 525
900457 613575 525
197275 510894 449
495437 664311 509
126393 920398 525
180592 995067 525
474378 862240 525
210669 687313 509
38097 129275 354
271094 360279 441
758690 293307 509
47829 443784 449
52639 767882 509
483791 187808 449
396702 958803 525
8106 625808 470
928400 793981 525
998818 405174 525
929507 527050 525
234523 875656 525
795029 944458 525
81359 732546 509
513692 741671 509
670520 402484 509
633436 944472 525
935619 319632 525
55648 972251 525
298017 457998 449
485799 188481 449
97809 237612 443
533426 349757 470
417818 181717 449
239591 693509 509
364307 944574 525
350067 20260 443
654194 110574 509
63836 485496 449
411514 277770 449
877149 873414 432
998519 606232 525
662800 630159 429
683166 304770 509
869908 542771 525
967144 7388 525
478279 699966 509
252949 873376 525
217951 760946 509
248055 631178 509
912419 50257 525
72578 409305 443
325808 275443 389
168365 414677 449
730660 396074 509
919006 846003 476
740998 433563 509
311164 75074 443
522727 150082 470
74352 91859 351
399907 456655 449
459421 545060 470
41858 528086 470
783806 377672 509
625012 130396 470
195054 617786 470
482331 34551 449
897007 495484 525
808757 571269 509
525962 960384 525
337863 958684 525
865797 686719 525
232439 913905 525
954311 444925 525
416543 401026 449
14518 484490 449
125350 960501 525
871804 573128 525
718114 488080 509
792138 247492 509
692173 741019 504
153209 490581 449
238432 375037 441
770732 160034 509
347310 773468 509
244562 138513 443
754748 670436 504
