356447 516510 470
977254 992172 427
867878 946555 507
734132 841798 525
632501 966720 525
685912 721487 504
797477 968312 525
604415 804430 509
704794 872385 525
179967 668592 509
793014 806074 468
830718 835649 419
821719 871027 525
739124 804884 468
90465 387108 443
727995 875650 525
588043 750354 509
355772 784280 509
228177 616727 470
37435 797243 509
225154 710840 509
96418 698269 509
685693 852283 525
935626 996925 507
122269 664527 509
782544 820581 468
499010 500102 395
780154 850497 525
87838 623127 470
997310 997602 321
306078 348891 441
186339 965250 525
84614 139751 354
490657 691649 509
100802 532123 470
618212 879715 525
4843 327579 443
647464 806015 504
17455 721061 509
688818 960415 525
9492 192833 383
684074 858708 525
674731 834927 504
186882 574151 470
5020 373124 443
109692 652672 509
606679 761887 509
296035 707219 509
838916 902779 445
346063 439517 449
950008 964473 414
818785 840925 525
314184 777486 509
680699 841388 525
862301 941505 507
643388 707681 504
759096 912867 525
167202 174931 347
764465 886401 525
298691 853311 525
424865 851491 525
284315 601563 470
306259 607163 470
365332 645539 509
630378 722528 504
307335 476513 449
985737 985770 215
55159 850182 525
975667 976001 334
962185 978577 458
369221 437938 449
419018 803033 509
192527 567672 470
880913 997946 507
602710 942645 525
904198 960119 507
898247 951245 507
816654 920769 525
780165 809726 468
396095 825152 509
889238 994330 507
763326 914003 525
643952 698145 442
474978 531677 470
81414 748889 509
956362 982659 458
43839 316658 443
592325 882244 525
702430 715132 504
400065 521957 470
322997 433442 449
512311 594838 452
149814 670619 509
689110 846089 525
685295 737511 504
814040 858817 525
132235 837299 509
795984 870186 525
190977 986339 525
80805 282511 443
449390 949150 525
130972 546893 470
93848 164048 383
150301 891876 525
417559 623477 470
624971 777177 509
963500 968864 383
304350 905931 525
648146 765764 504
804945 906320 525
587053 940807 525
679410 720479 504
216201 677408 509
700180 831985 504
265349 567190 470
232046 440132 449
621576 695068 509
162144 685270 509
600267 630335 509
406820 691884 509
676325 906883 525
489973 566726 470
161023 605757 470
623447 939946 525
209185 213922 373
740110 917422 525
543935 881853 525
691354 923631 525
311532 597536 470
727477 812190 468
160984 935585 525
408018 952732 525
631305 646942 416
291359 742954 509
695819 859955 525
955029 969650 414
36288 305762 443
318453 581471 470
468326 499613 426
802275 931722 525
296993 944930 525
11723 741607 509
828841 998435 525
610724 680859 509
494565 884821 525
269141 591031 470
326055 721602 509
983006 992625 427
245896 874705 525
873181 964474 507
583293 839439 525
317300 991622 525
364631 991948 525
150801 621861 470
966995 996164 458
90830 586487 470
629356 768119 504
204926 557950 470
978879 988698 427
866764 975895 507
442424 514645 470
994090 997681 365
686435 835981 504
646189 817119 504
295500 335924 384
857754 944292 507
574072 896754 525
920864 980270 507
981136 995193 427
946853 991080 458
763742 941749 525
692433 699725 367
195426 575104 470
463982 807507 509
682205 863533 525
57109 750088 509
523209 710058 509
780989 912551 525
114872 742442 509
551153 699512 509
733444 789251 468
71364 165300 383
575308 981224 525
864995 921710 476
865895 981816 507
60717 792789 509
893923 914983 476
82062 735260 509
195121 962258 525
763569 768834 468
530643 713860 509
130394 404435 443
588555 887250 525
832866 851541 525
528165 834579 509
32264 698969 509
586979 609080 403
887205 984657 507
584205 787642 509
754631 939106 525
