16807 474967 449
648451 942674 525
107786 210802 383
27443 849421 525
776465 235702 509
563617 437050 470
482708 242968 449
807873 521366 509
280886 531713 470
378017 542469 470
543407 831695 509
816445 95159 509
127743 569802 470
492902 278874 449
350923 793830 509
897143 806190 525
612949 929166 525
722230 876929 525
579621 377525 470
234451 558037 470
511437 8562 449
899842 817719 525
124086 91589 354
423872 892192 525
639609 185420 509
33355 920128 525
616198 357354 470
514897 571133 452
787080 700269 504
507578 60773 449
725780 453583 509
727441 117339 509
795683 805793 468
540406 847214 525
306193 374775 441
259223 938157 525
28040 406051 443
622728 388817 470
737043 554429 509
337790 15 443
722338 219825 509
75595 445023 449
544653 932844 525
28524 808847 509
317305 192390 443
781688 820466 468
798752 245780 509
405483 729750 509
935832 128530 525
353860 52252 443
850348 843893 419
783255 955446 525
110807 618131 470
151454 982327 525
721147 476834 509
619558 944625 525
958555 842263 507
852294 264490 525
97799 879943 525
826434 90132 509
400065 672968 509
441588 687119 509
716338 324444 509
117099 204015 383
470618 910281 525
796038 283965 509
841760 178389 525
529939 632989 509
184622 824396 509
972411 858086 507
247323 722780 509
313544 152739 443
629505 818913 504
555336 109466 470
436794 75957 449
496976 934035 525
648825 974891 525
582769 343872 470
112017 555362 470
947571 584402 525
235591 128483 443
44977 476334 449
935178 327158 525
895305 987540 507
710332 139653 509
724945 913493 525
941166 318390 525
607692 558806 434
436007 144869 449
806942 763970 468
596635 306246 470
193535 753539 509
397848 241923 441
412037 892934 525
140086 680572 509
27132 530882 470
334446 698160 509
160002 662542 509
43999 794653 509
453736 22381 449
573765 975788 525
876699 588347 525
85864 301194 443
111837 738929 509
122447 118508 336
488315 408665 449
974881 119643 525
727796 828675 468
532089 271860 470
821169 584 509
735433 400741 509
977001 2636 525
61235 996390 525
828441 687867 504
540128 454333 470
467013 298649 449
118926 918686 525
112788 637665 509
850945 827058 525
29515 221664 386
13787 302511 443
15851 265774 443
170179 233048 443
584531 862779 525
961896 601008 525
277843 887637 525
759148 938436 525
427966 53952 449
643738 494270 509
796091 196218 509
393897 634996 509
41806 530005 470
686289 993872 525
243595 587802 470
76563 990711 525
745273 835491 468
203363 133678 383
420078 959988 525
304980 336021 384
224643 924545 525
541560 301388 470
938143 480686 525
101980 346621 443
34455 6210 311
658088 847320 525
876431 724791 525
576432 264931 470
649946 264389 509
180302 43959 383
662811 753470 504
168558 925608 525
783193 279006 509
205279 659160 509
494883 569601 470
881514 193646 525
606518 840004 525
514368 695314 509
952471 656757 525
187050 221364 386
226836 318767 443
473073 794542 509
981547 619913 525
623430 47627 470
305966 974935 525
574919 237663 470
860034 54078 525
998034 636345 525
978337 860368 507
776655 68792 509
14121 293402 443
644038 206278 509
668852 672982 367
835560 839210 525
339011 982908 525
544345 773869 509
560003 248694 470
928731 600060 525
496236 968096 525
23918 341847 443
312566 719893 509
774783 106070 509
860329 785263 525
818247 60996 509
547175 243186 470
854866 421491 525
402983 718125 509
709994 424338 509
205313 161941 365
43886 672993 509
738574 283518 509
298844 958110 525
246297 906302 525
603583 135222 470
487416 620032 470
213550 822581 509
460852 479655 444
216066 618663 470
819695 422821 509
558637 278711 470
940996 482111 525
432721 173196 449
304834 251248 407
765154 915278 525
199231 669172 509
390567 82057 443
73630 902749 525
752111 188652 509
917273 710181 525
687079 185277 509
269222 849487 525
668136 75932 509
746715 665655 504
828106 791238 468
55984 316961 443
868447 763263 525
788089 192090 509
427082 312961 449
779254 559271 509
657811 40350 509
782510 517974 509
